-------------------------------------------------------------------------------
Test set: com.pornchitar.week6.AppTest
-------------------------------------------------------------------------------
Tests run: 1, Failures: 0, Errors: 0, Skipped: 0, Time elapsed: 0.073 s - in com.pornchitar.week6.AppTest
